…
```{bash eval=FALSE}
find ../../demultiplexer_for_DADA2/data -name "*fastq" | xargs \
rm 
find ../data/ -name "*.fastq" | xargs \
mv -t ../../demultiplexer_for_DADA2/data/
```

In order to run successfully `demultiplex_both_fastqs.sh` needs the following inputs:  

 - One or more pairs of fastq files in the `demultiplexer_for_DADA2/data/` directory.
 - A metadata file, containing the names of the paired files, the index sequences, and the sample name.
 - See Moncho's metadata example:
 
 ```
# A tibble: 93 x 6
   sample_id Tag    pri_index_name sec_index_seq file1        file2       
   <chr>     <chr>  <chr>          <chr>         <chr>        <chr>       
 1 SA07A.1   Tag_12 Lib_B          GATGAC        Lib-B_S2_L0… Lib-B_S2_L0…
 2 SA07B.1   Tag_12 Lib_D          GATGAC        Lib-D_S4_L0… Lib-D_S4_L0…
 3 SA07C.1   Tag_4  Lib_B          GCGCTC        Lib-B_S2_L0… Lib-B_S2_L0…
 4 TR07A.1   Tag_8  Lib_G          CTCGCA        Lib-G_S7_L0… Lib-G_S7_L0…
 5 TR07B.1   Tag_2  Lib_A          ACAGCA        Lib-A_S1_L0… Lib-A_S1_L0…
 6 TR07C.1   Tag_10 Lib_B          TGTATG        Lib-B_S2_L0… Lib-B_S2_L0…
 7 LL07A.1   Tag_7  Lib_G          ATATCG        Lib-G_S7_L0… Lib-G_S7_L0…
 8 LL07B.1   Tag_1  Lib_A          ACACAC        Lib-A_S1_L0… Lib-A_S1_L0…
 9 LL07C.1   Tag_5  Lib_G          ACATGT        Lib-G_S7_L0… Lib-G_S7_L0…
10 PO07A.1   Tag_9  Lib_A          TCGCAT        Lib-A_S1_L0… Lib-A_S1_L0…
# ... with 83 more rows
```
…
